…
``` r
print(backbone$module_network)
```

    ## # A tibble: 22 x 5
    ##    from  to    effect strength  hill
    ##    <chr> <chr>  <int>    <dbl> <dbl>
    ##  1 A1    A2         1       10     2
    ##  2 A2    A3        -1       10     2
    ##  3 A2    B1         1        1     2
    ##  4 B1    B2        -1       10     2
    ##  5 B1    C1         1        1     2
    ##  6 B1    D1         1        1     2
    ##  7 C1    C1         1       10     2
    ##  8 C1    D1        -1      100     2
    ##  9 C1    C2         1        1     2
    ## 10 C2    C3         1        1     2
    ## # … with 12 more rows
…
